Hardware Units/Register file/reg_wavedata.vcd
$date
	Thu Apr 20 13:47:44 2023
$end
$version
	Icarus Verilog
$end
$timescale
	1s
$end
$scope module reg_file_tb $end
$var wire 32 ! REGOUT2 [31:0] $end
$var wire 32 " REGOUT1 [31:0] $end
$var reg 1 # CLK $end
$var reg 5 $ READREG1 [4:0] $end
$var reg 5 % READREG2 [4:0] $end
$var reg 1 & RESET $end
$var reg 32 ' WRITEDATA [31:0] $end
$var reg 1 ( WRITEENABLE $end
$var reg 5 ) WRITEREG [4:0] $end
$scope module r1 $end
$var wire 1 # CLOCK $end
$var wire 32 * IN [31:0] $end
$var wire 5 + INADDRESS [4:0] $end
$var wire 5 , OUT1ADDRESS [4:0] $end
$var wire 5 - OUT2ADDRESS [4:0] $end
$var wire 1 & RESET $end
$var wire 1 ( WRITE $end
$var reg 32 . OUT1 [31:0] $end
$var reg 32 / OUT2 [31:0] $end
$var integer 32 0 i [31:0] $end
$upscope $end
$upscope $end
$enddefinitions $end
$comment Show the parameter values. $end
$dumpall
$end
#0
$dumpvars
bx 0
bx /
bx .
bx -
bx ,
bx +
bx *
bx )
0(
bx '
0&
bx %
bx $
1#
bx "
bx !
$end
#5
0#
b100 %
b100 -
b0 $
b0 ,
1&
#7
b100000 0
#10
b100000 0
1#
#12
0&
#13
b0 !
b0 /
b0 "
b0 .
#15
1(
b1011111 '
b1011111 *
b10 )
b10 +
0#
#20
1#
#24
0(
#25
b10 $
b10 ,
0#
#27
b100000 0
b1011111 "
b1011111 .
#30
1#
#34
b1 $
b1 ,
1(
b11100 '
b11100 *
b1 )
b1 +
#35
0#
#36
b100000 0
b0 "
b0 .
#40
1#
#43
b11100 "
b11100 .
#44
0(
#45
0#
#50
1#
#54
1(
b110 '
b110 *
b100 )
b100 +
#55
0#
#60
1#
#63
b110 !
b110 /
#64
b1111 '
b1111 *
#65
0#
#70
1#
#73
b1111 !
b1111 /
#74
0(
#75
0#
#80
1#
1(
b110010 '
b110010 *
b1 )
b1 +
#83
b110010 "
b110010 .
#85
0#
0(
